%YAML 1.1
%TAG !u! tag:unity3d.com,2011:
--- !u!1045 &1
EditorBuildSettings:
  m_ObjectHideFlags: 0
  serializedVersion: 2
  m_Scenes:
  - enabled: 1
    path: Assets/Scenes/Main.unity
    guid: 31e347dd5f0eaff42871829a5e1594e5
  - enabled: 1
    path: Assets/Scenes/downloadvideo.unity
    guid: 8a1625e6f97fd6a40bd822958d840d0a
  - enabled: 1
    path: Assets/Scenes/playvideo.unity
    guid: 1b0447d467608d549837a06976006054
  m_configObjects: {}
